[
    {
        "English_songs": [], 
        "Hindi_songs": [], 
        "album_id": "701", 
        "album_cover": "acne_cover_image.png", 
        "Telugu_songs": [
            {
                "song_id": "701.Telugu.1", 
                "song_name": "0-Acne Understanding and Visualization-Telugu.mp3", 
                "song_desc_short": "", 
                "song_title": "0-Acne Understanding and Visualization-Telugu.mp3", 
                "song_desc_long": "", 
                "song_status": true
            }, 
            {
                "song_id": "701.Telugu.2", 
                "song_name": "1-Acne Healing - Telugu-Full.mp3", 
                "song_desc_short": "", 
                "song_title": "1-Acne Healing - Telugu-Full.mp3", 
                "song_desc_long": "", 
                "song_status": true
            }, 
            {
                "song_id": "701.Telugu.3", 
                "song_name": "2-Acne Healing - Telugu - Short.mp3", 
                "song_desc_short": "", 
                "song_title": "2-Acne Healing - Telugu - Short.mp3", 
                "song_desc_long": "", 
                "song_status": true
            }
        ], 
        "album_status": true, 
        "album_name": "Acne"
    }, 
    {
        "English_songs": [], 
        "Hindi_songs": [], 
        "album_id": "702", 
        "album_cover": "back-pain-album_cover_image.png", 
        "Telugu_songs": [
            {
                "song_id": "702.Telugu.1", 
                "song_name": "06-Back Healing Short Telugu Glass Pipe.mp3", 
                "song_desc_short": "", 
                "song_title": "06-Back Healing Short Telugu Glass Pipe.mp3", 
                "song_desc_long": "", 
                "song_status": true
            }, 
            {
                "song_id": "702.Telugu.2", 
                "song_name": "07-Back Pain Healing-Telugu.mp3", 
                "song_desc_short": "", 
                "song_title": "07-Back Pain Healing-Telugu.mp3", 
                "song_desc_long": "", 
                "song_status": true
            }, 
            {
                "song_id": "702.Telugu.3", 
                "song_name": "1-back healing short telugu.mp3", 
                "song_desc_short": "", 
                "song_title": "1-back healing short telugu.mp3", 
                "song_desc_long": "", 
                "song_status": true
            }, 
            {
                "song_id": "702.Telugu.4", 
                "song_name": "2-Diamond Back2.mp3", 
                "song_desc_short": "", 
                "song_title": "2-Diamond Back2.mp3", 
                "song_desc_long": "", 
                "song_status": true
            }, 
            {
                "song_id": "702.Telugu.5", 
                "song_name": "3-Back Exercise Telugu.mp3", 
                "song_desc_short": "", 
                "song_title": "3-Back Exercise Telugu.mp3", 
                "song_desc_long": "", 
                "song_status": true
            }, 
            {
                "song_id": "702.Telugu.6", 
                "song_name": "4-Operation back Telugu.mp3", 
                "song_desc_short": "", 
                "song_title": "4-Operation back Telugu.mp3", 
                "song_desc_long": "", 
                "song_status": true
            }, 
            {
                "song_id": "702.Telugu.7", 
                "song_name": "5-Back Diamond.mp3", 
                "song_desc_short": "", 
                "song_title": "5-Back Diamond.mp3", 
                "song_desc_long": "", 
                "song_status": true
            }
        ], 
        "album_status": true, 
        "album_name": "Back_Healing"
    }, 
    {
        "English_songs": [
            {
                "song_id": "703.English.1", 
                "song_name": "01-BP-English-Long-10min.mp3", 
                "song_desc_short": "", 
                "song_title": "01-BP-English-Long-10min.mp3", 
                "song_desc_long": "", 
                "song_status": true
            }
        ], 
        "Hindi_songs": [], 
        "album_id": "703", 
        "album_cover": "26 Jan 2017.jpeg", 
        "Telugu_songs": [
            {
                "song_id": "703.Telugu.1", 
                "song_name": "01-Blood Pressure-Telugu-4min.mp3", 
                "song_desc_short": "", 
                "song_title": "01-Blood Pressure-Telugu-4min.mp3", 
                "song_desc_long": "", 
                "song_status": true
            }, 
            {
                "song_id": "703.Telugu.2", 
                "song_name": "02-Blood Pressure-Telugu-18 min.mp3", 
                "song_desc_short": "", 
                "song_title": "02-Blood Pressure-Telugu-18 min.mp3", 
                "song_desc_long": "", 
                "song_status": true
            }
        ], 
        "album_status": true, 
        "album_name": "Blood_Pressure"
    }, 
    {
        "English_songs": [
            {
                "song_id": "704.English.1", 
                "song_name": "01-Constipation-English2.mp3", 
                "song_desc_short": "", 
                "song_title": "01-Constipation-English2.mp3", 
                "song_desc_long": "", 
                "song_status": true
            }
        ], 
        "Hindi_songs": [], 
        "album_id": "704", 
        "album_cover": "constipation-album_cover.png", 
        "Telugu_songs": [
            {
                "song_id": "704.Telugu.1", 
                "song_name": "Constipation-Telugu2.mp3", 
                "song_desc_short": "", 
                "song_title": "Constipation-Telugu2.mp3", 
                "song_desc_long": "", 
                "song_status": true
            }
        ], 
        "album_status": true, 
        "album_name": "Constipation"
    }, 
    {
        "English_songs": [
            {
                "song_id": "705.English.1", 
                "song_name": "02-Diabetes-Cleanse-Eng.mp3", 
                "song_desc_short": "", 
                "song_title": "02-Diabetes-Cleanse-Eng.mp3", 
                "song_desc_long": "", 
                "song_status": true
            }
        ], 
        "Hindi_songs": [], 
        "album_id": "705", 
        "album_cover": "diabetes_album_cover_image.png", 
        "Telugu_songs": [
            {
                "song_id": "705.Telugu.1", 
                "song_name": "01-Diabetes_Intro_Telugu.m4a", 
                "song_desc_short": "", 
                "song_title": "01-Diabetes_Intro_Telugu.m4a", 
                "song_desc_long": "", 
                "song_status": true
            }, 
            {
                "song_id": "705.Telugu.2", 
                "song_name": "02-Diabetes cleaning Telugu.mp3", 
                "song_desc_short": "", 
                "song_title": "02-Diabetes cleaning Telugu.mp3", 
                "song_desc_long": "", 
                "song_status": true
            }, 
            {
                "song_id": "705.Telugu.3", 
                "song_name": "03-Diabetes-After Food-Telugu.mp3", 
                "song_desc_short": "", 
                "song_title": "03-Diabetes-After Food-Telugu.mp3", 
                "song_desc_long": "", 
                "song_status": true
            }, 
            {
                "song_id": "705.Telugu.4", 
                "song_name": "duabetes cleaning telugu.mp3", 
                "song_desc_short": "", 
                "song_title": "duabetes cleaning telugu.mp3", 
                "song_desc_long": "", 
                "song_status": true
            }
        ], 
        "album_status": true, 
        "album_name": "Diabetes"
    }, 
    {
        "English_songs": [], 
        "Hindi_songs": [], 
        "album_id": "706", 
        "album_cover": "diarrhea-album_cover_image.png", 
        "Telugu_songs": [
            {
                "song_id": "706.Telugu.1", 
                "song_name": "01-Diarrhea Telugu Short.mp3", 
                "song_desc_short": "", 
                "song_title": "01-Diarrhea Telugu Short.mp3", 
                "song_desc_long": "", 
                "song_status": true
            }
        ], 
        "album_status": true, 
        "album_name": "Diarrhea"
    }, 
    {
        "English_songs": [], 
        "Hindi_songs": [], 
        "album_id": "707", 
        "album_cover": "eyes_album_cover.jpeg", 
        "Telugu_songs": [
            {
                "song_id": "707.Telugu.1", 
                "song_name": "01-Eye- Black circles,wrinkles.mp3", 
                "song_desc_short": "", 
                "song_title": "01-Eye- Black circles,wrinkles.mp3", 
                "song_desc_long": "", 
                "song_status": true
            }, 
            {
                "song_id": "707.Telugu.2", 
                "song_name": "02-Eye_Relaxation_Short-Telugu.m4a", 
                "song_desc_short": "", 
                "song_title": "02-Eye_Relaxation_Short-Telugu.m4a", 
                "song_desc_long": "", 
                "song_status": true
            }, 
            {
                "song_id": "707.Telugu.3", 
                "song_name": "03-Eye Deep Relaxation,black circles, wrinkles below eyes.mp3", 
                "song_desc_short": "", 
                "song_title": "03-Eye Deep Relaxation,black circles, wrinkles below eyes.mp3", 
                "song_desc_long": "", 
                "song_status": true
            }
        ], 
        "album_status": true, 
        "album_name": "Eyes"
    }, 
    {
        "English_songs": [], 
        "Hindi_songs": [], 
        "album_id": "708", 
        "album_cover": "fever-album_cover_image.png", 
        "Telugu_songs": [
            {
                "song_id": "708.Telugu.1", 
                "song_name": "01-Fever Healing Telugu.mp3", 
                "song_desc_short": "", 
                "song_title": "01-Fever Healing Telugu.mp3", 
                "song_desc_long": "", 
                "song_status": true
            }
        ], 
        "album_status": true, 
        "album_name": "Fever"
    }, 
    {
        "English_songs": [
            {
                "song_id": "709.English.1", 
                "song_name": "01-Hair_Growth_-_English.m4a", 
                "song_desc_short": "", 
                "song_title": "01-Hair_Growth_-_English.m4a", 
                "song_desc_long": "", 
                "song_status": true
            }
        ], 
        "Hindi_songs": [], 
        "album_id": "709", 
        "album_cover": "hair_album_cover.jpeg", 
        "Telugu_songs": [
            {
                "song_id": "709.Telugu.1", 
                "song_name": "01-Hair Growth Bald Telugu Short.mp3", 
                "song_desc_short": "", 
                "song_title": "01-Hair Growth Bald Telugu Short.mp3", 
                "song_desc_long": "", 
                "song_status": true
            }, 
            {
                "song_id": "709.Telugu.2", 
                "song_name": "02-Black Hair Telugu Short.mp3", 
                "song_desc_short": "", 
                "song_title": "02-Black Hair Telugu Short.mp3", 
                "song_desc_long": "", 
                "song_status": true
            }, 
            {
                "song_id": "709.Telugu.3", 
                "song_name": "03-Dandruff Healing Telugu.mp3", 
                "song_desc_short": "", 
                "song_title": "03-Dandruff Healing Telugu.mp3", 
                "song_desc_long": "", 
                "song_status": true
            }
        ], 
        "album_status": true, 
        "album_name": "Hair"
    }, 
    {
        "English_songs": [
            {
                "song_id": "710.English.1", 
                "song_name": "Heat_English.m4a", 
                "song_desc_short": "", 
                "song_title": "Heat_English.m4a", 
                "song_desc_long": "", 
                "song_status": true
            }
        ], 
        "Hindi_songs": [], 
        "album_id": "710", 
        "album_cover": "heart_album_cover.png", 
        "Telugu_songs": [
            {
                "song_id": "710.Telugu.1", 
                "song_name": "1-Heart-Crystal Heart-Telugu.mp3", 
                "song_desc_short": "", 
                "song_title": "1-Heart-Crystal Heart-Telugu.mp3", 
                "song_desc_long": "", 
                "song_status": true
            }, 
            {
                "song_id": "710.Telugu.2", 
                "song_name": "2-Heart-Arrows of Hurt.mp3", 
                "song_desc_short": "", 
                "song_title": "2-Heart-Arrows of Hurt.mp3", 
                "song_desc_long": "", 
                "song_status": true
            }
        ], 
        "album_status": true, 
        "album_name": "Heart"
    }, 
    {
        "English_songs": [], 
        "Hindi_songs": [], 
        "album_id": "711", 
        "album_cover": "introduction_album_cover_image.png", 
        "Telugu_songs": [
            {
                "song_id": "711.Telugu.1", 
                "song_name": "00_AA_Self_Healing_-_Intro_-_how-Telugu.m4a", 
                "song_desc_short": "", 
                "song_title": "00_AA_Self_Healing_-_Intro_-_how-Telugu.m4a", 
                "song_desc_long": "", 
                "song_status": true
            }, 
            {
                "song_id": "711.Telugu.2", 
                "song_name": "00_AB_Mind_Healing_Adavantages-_Telugu.m4a", 
                "song_desc_short": "", 
                "song_title": "00_AB_Mind_Healing_Adavantages-_Telugu.m4a", 
                "song_desc_long": "", 
                "song_status": true
            }, 
            {
                "song_id": "711.Telugu.3", 
                "song_name": "00_BB_self_healing_-_intro-_original_language-_Telugu.m4a", 
                "song_desc_short": "", 
                "song_title": "00_BB_self_healing_-_intro-_original_language-_Telugu.m4a", 
                "song_desc_long": "", 
                "song_status": true
            }, 
            {
                "song_id": "711.Telugu.4", 
                "song_name": "01_Does_it_really_work-Telugu.m4a", 
                "song_desc_short": "", 
                "song_title": "01_Does_it_really_work-Telugu.m4a", 
                "song_desc_long": "", 
                "song_status": true
            }, 
            {
                "song_id": "711.Telugu.5", 
                "song_name": "02_How_Medicines_work_-_Telugu.m4a", 
                "song_desc_short": "", 
                "song_title": "02_How_Medicines_work_-_Telugu.m4a", 
                "song_desc_long": "", 
                "song_status": true
            }, 
            {
                "song_id": "711.Telugu.6", 
                "song_name": "02_Z_Do_medicines_cure-2.m4a", 
                "song_desc_short": "", 
                "song_title": "02_Z_Do_medicines_cure-2.m4a", 
                "song_desc_long": "", 
                "song_status": true
            }, 
            {
                "song_id": "711.Telugu.7", 
                "song_name": "03_Body_Architecture-Telugu-1.m4a", 
                "song_desc_short": "", 
                "song_title": "03_Body_Architecture-Telugu-1.m4a", 
                "song_desc_long": "", 
                "song_status": true
            }, 
            {
                "song_id": "711.Telugu.8", 
                "song_name": "04_Body_Becomes_Mind-_Telugu.m4a", 
                "song_desc_short": "", 
                "song_title": "04_Body_Becomes_Mind-_Telugu.m4a", 
                "song_desc_long": "", 
                "song_status": true
            }, 
            {
                "song_id": "711.Telugu.9", 
                "song_name": "05_Mind_Becomes_Body-Telugu.m4a", 
                "song_desc_short": "", 
                "song_title": "05_Mind_Becomes_Body-Telugu.m4a", 
                "song_desc_long": "", 
                "song_status": true
            }, 
            {
                "song_id": "711.Telugu.10", 
                "song_name": "06_How_healing_works-_part2.m4a", 
                "song_desc_short": "", 
                "song_title": "06_How_healing_works-_part2.m4a", 
                "song_desc_long": "", 
                "song_status": true
            }, 
            {
                "song_id": "711.Telugu.11", 
                "song_name": "07_It_is_not_working-_Telugu.m4a", 
                "song_desc_short": "", 
                "song_title": "07_It_is_not_working-_Telugu.m4a", 
                "song_desc_long": "", 
                "song_status": true
            }, 
            {
                "song_id": "711.Telugu.12", 
                "song_name": "08_How_Disease_gets_its_power-_Telugu.m4a", 
                "song_desc_short": "", 
                "song_title": "08_How_Disease_gets_its_power-_Telugu.m4a", 
                "song_desc_long": "", 
                "song_status": true
            }, 
            {
                "song_id": "711.Telugu.13", 
                "song_name": "09_Changing_Disease_Name_-_Telugu.m4a", 
                "song_desc_short": "", 
                "song_title": "09_Changing_Disease_Name_-_Telugu.m4a", 
                "song_desc_long": "", 
                "song_status": true
            }, 
            {
                "song_id": "711.Telugu.14", 
                "song_name": "How_to_make_disease_powerless-_Telugu.m4a", 
                "song_desc_short": "", 
                "song_title": "How_to_make_disease_powerless-_Telugu.m4a", 
                "song_desc_long": "", 
                "song_status": true
            }, 
            {
                "song_id": "711.Telugu.15", 
                "song_name": "Law0_Learning_to_Imagine-Telugu-1.m4a", 
                "song_desc_short": "", 
                "song_title": "Law0_Learning_to_Imagine-Telugu-1.m4a", 
                "song_desc_long": "", 
                "song_status": true
            }, 
            {
                "song_id": "711.Telugu.16", 
                "song_name": "Law0_Learning_to_Imagine_-Telugu_2.m4a", 
                "song_desc_short": "", 
                "song_title": "Law0_Learning_to_Imagine_-Telugu_2.m4a", 
                "song_desc_long": "", 
                "song_status": true
            }, 
            {
                "song_id": "711.Telugu.17", 
                "song_name": "law1-Reflection-2.m4a", 
                "song_desc_short": "", 
                "song_title": "law1-Reflection-2.m4a", 
                "song_desc_long": "", 
                "song_status": true
            }, 
            {
                "song_id": "711.Telugu.18", 
                "song_name": "Law2-Fear.m4a", 
                "song_desc_short": "", 
                "song_title": "Law2-Fear.m4a", 
                "song_desc_long": "", 
                "song_status": true
            }, 
            {
                "song_id": "711.Telugu.19", 
                "song_name": "Mind_Altering_medicines_-Telugu-1.m4a", 
                "song_desc_short": "", 
                "song_title": "Mind_Altering_medicines_-Telugu-1.m4a", 
                "song_desc_long": "", 
                "song_status": true
            }, 
            {
                "song_id": "711.Telugu.20", 
                "song_name": "Problem_Solving_-_Vasikarana_-_Telugu.m4a", 
                "song_desc_short": "", 
                "song_title": "Problem_Solving_-_Vasikarana_-_Telugu.m4a", 
                "song_desc_long": "", 
                "song_status": true
            }, 
            {
                "song_id": "711.Telugu.21", 
                "song_name": "Problem_Solving_Telugu.m4a", 
                "song_desc_short": "", 
                "song_title": "Problem_Solving_Telugu.m4a", 
                "song_desc_long": "", 
                "song_status": true
            }, 
            {
                "song_id": "711.Telugu.22", 
                "song_name": "Self_Healing_Storey-10.m4a", 
                "song_desc_short": "", 
                "song_title": "Self_Healing_Storey-10.m4a", 
                "song_desc_long": "", 
                "song_status": true
            }, 
            {
                "song_id": "711.Telugu.23", 
                "song_name": "Self_Healing_Storey-11.m4a", 
                "song_desc_short": "", 
                "song_title": "Self_Healing_Storey-11.m4a", 
                "song_desc_long": "", 
                "song_status": true
            }, 
            {
                "song_id": "711.Telugu.24", 
                "song_name": "Self_Healing_Storey-12.m4a", 
                "song_desc_short": "", 
                "song_title": "Self_Healing_Storey-12.m4a", 
                "song_desc_long": "", 
                "song_status": true
            }, 
            {
                "song_id": "711.Telugu.25", 
                "song_name": "Self_healing_Storey-13.m4a", 
                "song_desc_short": "", 
                "song_title": "Self_healing_Storey-13.m4a", 
                "song_desc_long": "", 
                "song_status": true
            }, 
            {
                "song_id": "711.Telugu.26", 
                "song_name": "self_healing_storey-14.m4a", 
                "song_desc_short": "", 
                "song_title": "self_healing_storey-14.m4a", 
                "song_desc_long": "", 
                "song_status": true
            }, 
            {
                "song_id": "711.Telugu.27", 
                "song_name": "Self_healing_storey-15.m4a", 
                "song_desc_short": "", 
                "song_title": "Self_healing_storey-15.m4a", 
                "song_desc_long": "", 
                "song_status": true
            }, 
            {
                "song_id": "711.Telugu.28", 
                "song_name": "Self_Healing_Storey-16.m4a", 
                "song_desc_short": "", 
                "song_title": "Self_Healing_Storey-16.m4a", 
                "song_desc_long": "", 
                "song_status": true
            }, 
            {
                "song_id": "711.Telugu.29", 
                "song_name": "Self_Healing_Storey-17.m4a", 
                "song_desc_short": "", 
                "song_title": "Self_Healing_Storey-17.m4a", 
                "song_desc_long": "", 
                "song_status": true
            }, 
            {
                "song_id": "711.Telugu.30", 
                "song_name": "Self_Healing_Storey-18.m4a", 
                "song_desc_short": "", 
                "song_title": "Self_Healing_Storey-18.m4a", 
                "song_desc_long": "", 
                "song_status": true
            }, 
            {
                "song_id": "711.Telugu.31", 
                "song_name": "Self_Healing_storey-19.m4a", 
                "song_desc_short": "", 
                "song_title": "Self_Healing_storey-19.m4a", 
                "song_desc_long": "", 
                "song_status": true
            }, 
            {
                "song_id": "711.Telugu.32", 
                "song_name": "Self_Healing_storey-20.m4a", 
                "song_desc_short": "", 
                "song_title": "Self_Healing_storey-20.m4a", 
                "song_desc_long": "", 
                "song_status": true
            }, 
            {
                "song_id": "711.Telugu.33", 
                "song_name": "Self_Healing_Storey-21.m4a", 
                "song_desc_short": "", 
                "song_title": "Self_Healing_Storey-21.m4a", 
                "song_desc_long": "", 
                "song_status": true
            }, 
            {
                "song_id": "711.Telugu.34", 
                "song_name": "Self_Healing_Storey-22.m4a", 
                "song_desc_short": "", 
                "song_title": "Self_Healing_Storey-22.m4a", 
                "song_desc_long": "", 
                "song_status": true
            }, 
            {
                "song_id": "711.Telugu.35", 
                "song_name": "Self_Healing_Storey-24.m4a", 
                "song_desc_short": "", 
                "song_title": "Self_Healing_Storey-24.m4a", 
                "song_desc_long": "", 
                "song_status": true
            }, 
            {
                "song_id": "711.Telugu.36", 
                "song_name": "Self_Healing_Storey-25.m4a", 
                "song_desc_short": "", 
                "song_title": "Self_Healing_Storey-25.m4a", 
                "song_desc_long": "", 
                "song_status": true
            }, 
            {
                "song_id": "711.Telugu.37", 
                "song_name": "Self_Healing_Storey-4.m4a", 
                "song_desc_short": "", 
                "song_title": "Self_Healing_Storey-4.m4a", 
                "song_desc_long": "", 
                "song_status": true
            }, 
            {
                "song_id": "711.Telugu.38", 
                "song_name": "Self_Healing_Storey-6.m4a", 
                "song_desc_short": "", 
                "song_title": "Self_Healing_Storey-6.m4a", 
                "song_desc_long": "", 
                "song_status": true
            }, 
            {
                "song_id": "711.Telugu.39", 
                "song_name": "Self_Healing_storey-7.m4a", 
                "song_desc_short": "", 
                "song_title": "Self_Healing_storey-7.m4a", 
                "song_desc_long": "", 
                "song_status": true
            }, 
            {
                "song_id": "711.Telugu.40", 
                "song_name": "Self_Healing_Storey-8.m4a", 
                "song_desc_short": "", 
                "song_title": "Self_Healing_Storey-8.m4a", 
                "song_desc_long": "", 
                "song_status": true
            }, 
            {
                "song_id": "711.Telugu.41", 
                "song_name": "Self_Healing_Storey-9.m4a", 
                "song_desc_short": "", 
                "song_title": "Self_Healing_Storey-9.m4a", 
                "song_desc_long": "", 
                "song_status": true
            }, 
            {
                "song_id": "711.Telugu.42", 
                "song_name": "Self_healing_stories_-_Telugu.m4a", 
                "song_desc_short": "", 
                "song_title": "Self_healing_stories_-_Telugu.m4a", 
                "song_desc_long": "", 
                "song_status": true
            }, 
            {
                "song_id": "711.Telugu.43", 
                "song_name": "Self_Healing_Torey-5.m4a", 
                "song_desc_short": "", 
                "song_title": "Self_Healing_Torey-5.m4a", 
                "song_desc_long": "", 
                "song_status": true
            }, 
            {
                "song_id": "711.Telugu.44", 
                "song_name": "Using_Virtual_Objects_in_Healing_-_Telugu.m4a", 
                "song_desc_short": "", 
                "song_title": "Using_Virtual_Objects_in_Healing_-_Telugu.m4a", 
                "song_desc_long": "", 
                "song_status": true
            }, 
            {
                "song_id": "711.Telugu.45", 
                "song_name": "Virtual_Obj-1.m4a", 
                "song_desc_short": "", 
                "song_title": "Virtual_Obj-1.m4a", 
                "song_desc_long": "", 
                "song_status": true
            }, 
            {
                "song_id": "711.Telugu.46", 
                "song_name": "Virtual_Obj-2.m4a", 
                "song_desc_short": "", 
                "song_title": "Virtual_Obj-2.m4a", 
                "song_desc_long": "", 
                "song_status": true
            }, 
            {
                "song_id": "711.Telugu.47", 
                "song_name": "Virtual_objects_-_Super_human_strength_-_Telugu.m4a", 
                "song_desc_short": "", 
                "song_title": "Virtual_objects_-_Super_human_strength_-_Telugu.m4a", 
                "song_desc_long": "", 
                "song_status": true
            }
        ], 
        "album_status": true, 
        "album_name": "Introduction"
    }, 
    {
        "English_songs": [
            {
                "song_id": "712.English.1", 
                "song_name": "01-MTH - English.mp3", 
                "song_desc_short": "", 
                "song_title": "01-MTH - English.mp3", 
                "song_desc_long": "", 
                "song_status": true
            }
        ], 
        "Hindi_songs": [], 
        "album_id": "712", 
        "album_cover": "meditaion_album_cover_image.png", 
        "Telugu_songs": [
            {
                "song_id": "712.Telugu.1", 
                "song_name": "01-Meditation-Empty_Cup-Telugu.m4a", 
                "song_desc_short": "", 
                "song_title": "01-Meditation-Empty_Cup-Telugu.m4a", 
                "song_desc_long": "", 
                "song_status": true
            }, 
            {
                "song_id": "712.Telugu.2", 
                "song_name": "02-Meditation-Deep_Breath_2_Telugu.m4a", 
                "song_desc_short": "", 
                "song_title": "02-Meditation-Deep_Breath_2_Telugu.m4a", 
                "song_desc_long": "", 
                "song_status": true
            }, 
            {
                "song_id": "712.Telugu.3", 
                "song_name": "03-Khanda_yogam_-_1_Telugu.m4a", 
                "song_desc_short": "", 
                "song_title": "03-Khanda_yogam_-_1_Telugu.m4a", 
                "song_desc_long": "", 
                "song_status": true
            }, 
            {
                "song_id": "712.Telugu.4", 
                "song_name": "04-MTH -Telugu.mp3", 
                "song_desc_short": "", 
                "song_title": "04-MTH -Telugu.mp3", 
                "song_desc_long": "", 
                "song_status": true
            }
        ], 
        "album_status": true, 
        "album_name": "Meditations"
    }, 
    {
        "English_songs": [], 
        "Hindi_songs": [], 
        "album_id": "713", 
        "album_cover": "NotFound", 
        "Telugu_songs": [
            {
                "song_id": "713.Telugu.1", 
                "song_name": "01_Deep_sleep_Telugu.m4a", 
                "song_desc_short": "", 
                "song_title": "01_Deep_sleep_Telugu.m4a", 
                "song_desc_long": "", 
                "song_status": true
            }
        ], 
        "album_status": true, 
        "album_name": "Sleep"
    }
]